Get college football play-by-play data. — cfbd_plays • cfbfastR
…
    Other CFBD PBP:
cfbd_live_plays(),
cfbd_pbp_data(),
cfbd_play_stats_player(),
cfbd_play_stats_types(),
cfbd_play_types()

    Examples

# \donttest{
  try(cfbd_plays(year = 2021, week = 1))
#> ── Play-by-play data from CollegeFootballData.com ──────────── cfbfastR 2.0.0 ──
#> ℹ Data updated: 2025-08-30 00:44:01 UTC
#> # A tibble: 15,066 × 28
#>     game_id drive_id play_id drive_number play_number offense offense_conference
#>       <int> <chr>    <chr>          <int>       <int> <chr>   <chr>             
#>  1   4.01e8 4012826… 401282…            7           7 Notre … FBS Independents  
#>  2   4.01e8 4012826… 401282…            9           4 Notre … FBS Independents  
#>  3   4.01e8 4012826… 401282…            9           1 Notre … FBS Independents  
#>  4   4.01e8 4012826… 401282…            9           2 Notre … FBS Independents  
#>  5   4.01e8 4012826… 401282…            9           3 Notre … FBS Independents  
#>  6   4.01e8 4012826… 401282…           11          10 Notre … FBS Independents  
#>  7   4.01e8 4012826… 401282…           11          12 Notre … FBS Independents  
#>  8   4.01e8 4012826… 401282…           11           2 Notre … FBS Independents  
#>  9   4.01e8 4012826… 401282…           11           3 Notre … FBS Independents  
#> 10   4.01e8 4012826… 401282…           11           6 Notre … FBS Independents  
#> # ℹ 15,056 more rows
#> # ℹ 21 more variables: offense_score <int>, defense <chr>,
#> #   defense_conference <chr>, defense_score <int>, home <chr>, away <chr>,
#> #   period <int>, offense_timeouts <int>, defense_timeouts <int>,
#> #   yardline <int>, yards_to_goal <int>, down <int>, distance <int>,
#> #   yards_gained <int>, scoring <lgl>, play_type <chr>, play_text <chr>,
#> #   ppa <dbl>, wallclock <chr>, clock_minutes <int>, clock_seconds <int>
…
