…
Other CFBD PBP:
[`cfbd_live_plays()`](https://cfbfastR.sportsdataverse.org/reference/cfbd_live_plays.md),
[`cfbd_pbp_data()`](https://cfbfastR.sportsdataverse.org/reference/cfbd_pbp_data.md),
[`cfbd_play_stats_types()`](https://cfbfastR.sportsdataverse.org/reference/cfbd_play_stats_types.md),
[`cfbd_play_types()`](https://cfbfastR.sportsdataverse.org/reference/cfbd_play_types.md),
[`cfbd_plays()`](https://cfbfastR.sportsdataverse.org/reference/cfbd_plays.md)

## Examples

``` r
# \donttest{
  try(cfbd_play_stats_player(game_id = 401628414))
#> ── Play-level player data from CollegeFootballData.com ─────── cfbfastR 2.2.1 ──
#> ℹ Data updated: 2026-01-19 16:22:10 UTC
#> # A tibble: 132 × 70
#>      game_id season  week team     conference opponent team_score opponent_score
#>        <int>  <int> <int> <chr>    <chr>      <chr>         <int>          <int>
#>  1 401628414   2024    11 Ole Miss SEC        Georgia           0              0
#>  2 401628414   2024    11 Georgia  SEC        Ole Miss          0              0
#>  3 401628414   2024    11 Georgia  SEC        Ole Miss          0              0
#>  4 401628414   2024    11 Georgia  SEC        Ole Miss          0              0
#>  5 401628414   2024    11 Georgia  SEC        Ole Miss          0              0
#>  6 401628414   2024    11 Georgia  SEC        Ole Miss          0              0
#>  7 401628414   2024    11 Georgia  SEC        Ole Miss          0              0
#>  8 401628414   2024    11 Georgia  SEC        Ole Miss          0              0
#>  9 401628414   2024    11 Georgia  SEC        Ole Miss          0              0
#> 10 401628414   2024    11 Georgia  SEC        Ole Miss          7              0
#> # ℹ 122 more rows
#> # ℹ 62 more variables: drive_id <chr>, play_id <chr>, period <int>,
#> #   clock_minutes <int>, clock_seconds <int>, yards_to_goal <int>, down <int>,
#> #   distance <int>, reception_player_id <chr>, reception_player <chr>,
#> #   reception_yds <int>, completion_player_id <chr>, completion_player <chr>,
#> #   completion_yds <int>, rush_player_id <chr>, rush_player <chr>,
#> #   rush_yds <int>, interception_player_id <chr>, interception_player <chr>, …
  try(cfbd_play_stats_player(year = 2025, week = 1))
#> ── Play-level player data from CollegeFootballData.com ─────── cfbfastR 2.2.1 ──
#> ℹ Data updated: 2026-01-19 16:22:32 UTC
#> # A tibble: 1,306 × 70
#>      game_id season  week team    conference opponent  team_score opponent_score
#>        <int>  <int> <int> <chr>   <chr>      <chr>          <int>          <int>
#>  1 401752665   2025     1 Alabama SEC        Florida …          0              0
#>  2 401752665   2025     1 Alabama SEC        Florida …          0              0
#>  3 401752665   2025     1 Alabama SEC        Florida …          0              0
#>  4 401752665   2025     1 Alabama SEC        Florida …          0              0
#>  5 401752665   2025     1 Alabama SEC        Florida …          0              0
#>  6 401752665   2025     1 Alabama SEC        Florida …          0              0
#>  7 401752665   2025     1 Alabama SEC        Florida …          0              0
#>  8 401752665   2025     1 Alabama SEC        Florida …          0              0
#>  9 401752665   2025     1 Alabama SEC        Florida …          0              0
#> 10 401752665   2025     1 Alabama SEC        Florida …          0              0
#> # ℹ 1,296 more rows
#> # ℹ 62 more variables: drive_id <chr>, play_id <chr>, period <int>,
#> #   clock_minutes <int>, clock_seconds <int>, yards_to_goal <int>, down <int>,
#> #   distance <int>, reception_player_id <chr>, reception_player <chr>,
#> #   reception_yds <int>, completion_player_id <chr>, completion_player <chr>,
#> #   completion_yds <int>, rush_player_id <chr>, rush_player <chr>,
#> #   rush_yds <int>, interception_player_id <chr>, interception_player <chr>, …
…
