Gets player info associated by play — cfbd_play_stats_player • cfbfastR
…
pass_breakup_player: logical.
Pass breakup player name.

pass_breakup_stat: logical.
Pass breakup (PBU) stat.

    Examples

# \donttest{
  cfbd_play_stats_player(game_id = 401110722)
#> ── play-level player data from CollegeFootballData.com ─────── cfbfastR 1.8.1 ──
#> ℹ Data updated: 2022-04-30 11:13:15 UTC
#> # A tibble: 140 × 54
#>    play_id      game_id season  week opponent team_score opponent_score drive_id
#>    <chr>          <int>  <int> <int> <chr>         <int>          <int> <chr>   
#>  1 40111072210…  4.01e8   2019     1 Auburn            0              0 4011107…
#>  2 40111072210…  4.01e8   2019     1 Auburn            0              0 4011107…
#>  3 40111072210…  4.01e8   2019     1 Auburn            0              0 4011107…
#>  4 40111072210…  4.01e8   2019     1 Auburn            0              0 4011107…
#>  5 40111072210…  4.01e8   2019     1 Auburn            0              0 4011107…
#>  6 40111072210…  4.01e8   2019     1 Auburn            0              0 4011107…
#>  7 40111072210…  4.01e8   2019     1 Auburn            0              0 4011107…
#>  8 40111072210…  4.01e8   2019     1 Auburn            0              0 4011107…
#>  9 40111072210…  4.01e8   2019     1 Auburn            0              0 4011107…
#> 10 40111072210…  4.01e8   2019     1 Auburn            7              0 4011107…
#> # … with 130 more rows, and 46 more variables: period <int>,
#> #   yards_to_goal <int>, down <int>, distance <int>, reception_player_id <chr>,
#> #   reception_player <chr>, reception_yds <int>, completion_player_id <chr>,
#> #   completion_player <chr>, completion_yds <int>, rush_player_id <chr>,
#> #   rush_player <chr>, rush_yds <int>, interception_player_id <chr>,
#> #   interception_player <chr>, interception_stat <int>,
#> #   interception_thrown_player_id <chr>, interception_thrown_player <chr>, …
…
