…
  try(cfbd_recruiting_position(2015, 2020, conference = "SEC"))
#> ── Recruiting position group info from CollegeFootballData.com ─────────────────
#> ℹ Data updated: 2026-01-19 16:22:45 UTC
#> # A tibble: 224 × 7
#>    team     conference position_group avg_rating total_rating commits avg_stars 
#>    <chr>    <chr>      <chr>               <dbl>        <dbl> <chr>   <chr>     
#>  1 Alabama  SEC        Defensive Back      0.950        20.9  22      4.0454545…
#>  2 Alabama  SEC        Defensive Line      0.951        27.6  29      4.1724137…
#>  3 Alabama  SEC        Linebacker          0.941        15.1  16      4.0000000…
#>  4 Alabama  SEC        Offensive Line      0.939        19.7  21      4.0476190…
#>  5 Alabama  SEC        Quarterback         0.894         8.94 10      3.7000000…
#>  6 Alabama  SEC        Receiver            0.923        19.4  21      3.8571428…
#>  7 Alabama  SEC        Running Back        0.919        13.8  15      3.8000000…
#>  8 Alabama  SEC        Special Teams       0.892         7.13 8       3.6250000…
#>  9 Arkansas SEC        Defensive Back      0.861        13.8  16      3.2500000…
#> 10 Arkansas SEC        Defensive Line      0.891        14.3  16      3.5000000…
#> # ℹ 214 more rows
…
