…
  try(cfbd_team_info(year = 2019))
#> ── Team information from CollegeFootballData.com ───────────── cfbfastR 2.2.1 ──
#> ℹ Data updated: 2026-01-19 16:23:02 UTC
#> # A tibble: 130 × 29
#>    team_id school   mascot abbreviation alt_name1 alt_name2 alt_name3 conference
#>      <int> <chr>    <chr>  <chr>        <chr>     <chr>     <chr>     <chr>     
#>  1    2005 Air For… Falco… AF           AF        Air Force NA        Mountain …
#>  2    2006 Akron    Zips   AKR          AKR       Akron     NA        Mid-Ameri…
#>  3     333 Alabama  Crims… ALA          ALA       Alabama   NA        SEC       
#>  4    2026 App Sta… Mount… APP          Appalach… APP       App State Sun Belt  
#>  5      12 Arizona  Wildc… ARIZ         ARIZ      Arizona   NA        Pac-12    
#>  6       9 Arizona… Sun D… ASU          ASU       Arizona … NA        Pac-12    
#>  7       8 Arkansas Razor… ARK          ARK       Arkansas  NA        SEC       
#>  8    2032 Arkansa… Red W… ARST         ARST      Arkansas… NA        Sun Belt  
#>  9     349 Army     Black… ARMY         ARMY      Army      NA        FBS Indep…
#> 10       2 Auburn   Tigers AUB          AUB       Auburn    NA        SEC       
#> # ℹ 120 more rows
#> # ℹ 21 more variables: division <chr>, classification <chr>, color <chr>,
#> #   alt_color <chr>, logo <chr>, logo_2 <chr>, twitter <chr>, venue_id <int>,
#> #   venue_name <chr>, city <chr>, state <chr>, zip <chr>, country_code <chr>,
#> #   timezone <chr>, latitude <dbl>, longitude <dbl>, elevation <chr>,
#> #   capacity <int>, year_constructed <int>, grass <lgl>, dome <lgl>
…
