…
Other CFBD PBP:
[`cfbd_pbp_data()`](https://cfbfastR.sportsdataverse.org/reference/cfbd_pbp_data.md),
[`cfbd_play_stats_player()`](https://cfbfastR.sportsdataverse.org/reference/cfbd_play_stats_player.md),
[`cfbd_play_stats_types()`](https://cfbfastR.sportsdataverse.org/reference/cfbd_play_stats_types.md),
[`cfbd_play_types()`](https://cfbfastR.sportsdataverse.org/reference/cfbd_play_types.md),
[`cfbd_plays()`](https://cfbfastR.sportsdataverse.org/reference/cfbd_plays.md)

## Examples

``` r
# \donttest{
  try(cfbd_live_plays(game_id=401520182))
#> ── Live play-by-play data from CollegeFootballData.com ─────── cfbfastR 2.2.0 ──
#> ℹ Data updated: 2026-01-12 06:32:59 UTC
#> # A tibble: 164 × 98
#>      game_id home_team_id home_team    away_team_id away_team play_id home_score
#>        <int>        <int> <chr>               <int> <chr>     <chr>        <int>
#>  1 401520182           52 Florida Sta…           99 LSU       401520…          0
#>  2 401520182           52 Florida Sta…           99 LSU       401520…          0
#>  3 401520182           52 Florida Sta…           99 LSU       401520…          0
#>  4 401520182           52 Florida Sta…           99 LSU       401520…          0
#>  5 401520182           52 Florida Sta…           99 LSU       401520…          0
#>  6 401520182           52 Florida Sta…           99 LSU       401520…          0
#>  7 401520182           52 Florida Sta…           99 LSU       401520…          0
#>  8 401520182           52 Florida Sta…           99 LSU       401520…          0
#>  9 401520182           52 Florida Sta…           99 LSU       401520…          0
#> 10 401520182           52 Florida Sta…           99 LSU       401520…          0
#> # ℹ 154 more rows
#> # ℹ 91 more variables: away_score <int>, period <int>, clock <chr>,
#> #   wall_clock <chr>, offense_team_id <int>, offense_team <chr>, down <int>,
#> #   distance <int>, yards_to_goal <int>, yards_gained <int>,
#> #   play_type_id <int>, play_type <chr>, ppa <dbl>, garbage_time <lgl>,
#> #   success <lgl>, rush_pass <chr>, down_type <chr>, play_text <chr>,
#> #   drive_id <chr>, drive_offense_id <int>, drive_offense_team <chr>, …
…
