Get college football position group recruiting information. — cfbd_recruiting_position • cfbfastR
…
  try(cfbd_recruiting_position(2015, 2020, conference = "SEC"))
#> ── Recruiting position group info from CollegeFootballData.com ─────────────────
#> ℹ Data updated: 2022-11-24 08:46:16 UTC
#> # A tibble: 126 × 7
#>    team     conference position_group avg_rating total_rating commits avg_stars
#>    <chr>    <chr>      <chr>               <dbl>        <dbl>   <int>     <dbl>
#>  1 Alabama  SEC        Defensive Back      0.946        22.7       24      4   
#>  2 Alabama  SEC        Defensive Line      0.954        29.6       31      4.19
#>  3 Alabama  SEC        Linebacker          0.939        16.0       17      4   
#>  4 Alabama  SEC        Offensive Line      0.933        21.5       23      3.96
#>  5 Alabama  SEC        Quarterback         0.906         8.16       9      3.89
#>  6 Alabama  SEC        Receiver            0.925        21.3       23      3.83
#>  7 Alabama  SEC        Running Back        0.930        13.0       14      3.93
#>  8 Alabama  SEC        Special Teams       0.886         8.86      10      3.5 
#>  9 Arkansas SEC        Defensive Back      0.863        22.4       26      3.23
#> 10 Arkansas SEC        Defensive Line      0.879        22.8       26      3.31
#> # … with 116 more rows
…
