…
  Minutes elapsed during drive.

- `time_seconds_elapsed`:integer.:

  Seconds elapsed during drive.

## Examples

``` r
# \donttest{
  try(cfbd_drives(year=2018, week = 1, team = "TCU"))
#> ── Drives data from CollegeFootballData.com ────────────────── cfbfastR 2.2.0 ──
#> ℹ Data updated: 2026-01-12 12:20:31 UTC
#> # A tibble: 25 × 28
#>    drive_id      game_id offense  offense_conference defense  defense_conference
#>    <chr>           <int> <chr>    <chr>              <chr>    <chr>             
#>  1 4010130721  401013072 TCU      Big 12             Southern SWAC              
#>  2 4010130722  401013072 Southern SWAC               TCU      Big 12            
#>  3 4010130723  401013072 TCU      Big 12             Southern SWAC              
#>  4 4010130724  401013072 Southern SWAC               TCU      Big 12            
#>  5 4010130725  401013072 TCU      Big 12             Southern SWAC              
#>  6 4010130726  401013072 Southern SWAC               TCU      Big 12            
#>  7 4010130727  401013072 TCU      Big 12             Southern SWAC              
#>  8 4010130728  401013072 Southern SWAC               TCU      Big 12            
#>  9 4010130729  401013072 TCU      Big 12             Southern SWAC              
#> 10 40101307210 401013072 Southern SWAC               TCU      Big 12            
#> # ℹ 15 more rows
#> # ℹ 22 more variables: drive_number <int>, scoring <lgl>, start_period <int>,
#> #   start_yardline <int>, start_yards_to_goal <int>, end_period <int>,
#> #   end_yardline <int>, end_yards_to_goal <int>, plays <int>, yards <int>,
#> #   drive_result <chr>, is_home_offense <lgl>, start_offense_score <int>,
#> #   start_defense_score <int>, end_offense_score <int>,
#> #   end_defense_score <int>, time_minutes_start <int>, …

  try(cfbd_drives(2018, team = "Texas A&M", defense_conference = "SEC"))
#> ── Drives data from CollegeFootballData.com ────────────────── cfbfastR 2.2.0 ──
#> ℹ Data updated: 2026-01-12 12:20:32 UTC
#> # A tibble: 259 × 28
#>    drive_id      game_id offense   offense_conference defense defense_conference
#>    <chr>           <int> <chr>     <chr>              <chr>   <chr>             
#>  1 4010122581  401012258 Northwes… Southland          Texas … SEC               
#>  2 4010122583  401012258 Northwes… Southland          Texas … SEC               
#>  3 4010122585  401012258 Northwes… Southland          Texas … SEC               
#>  4 4010122587  401012258 Northwes… Southland          Texas … SEC               
#>  5 4010122589  401012258 Northwes… Southland          Texas … SEC               
#>  6 40101225811 401012258 Northwes… Southland          Texas … SEC               
#>  7 40101225813 401012258 Northwes… Southland          Texas … SEC               
#>  8 40101225815 401012258 Northwes… Southland          Texas … SEC               
#>  9 40101225817 401012258 Northwes… Southland          Texas … SEC               
#> 10 40101225819 401012258 Northwes… Southland          Texas … SEC               
#> # ℹ 249 more rows
#> # ℹ 22 more variables: drive_number <int>, scoring <lgl>, start_period <int>,
#> #   start_yardline <int>, start_yards_to_goal <int>, end_period <int>,
#> #   end_yardline <int>, end_yards_to_goal <int>, plays <int>, yards <int>,
#> #   drive_result <chr>, is_home_offense <lgl>, start_offense_score <int>,
#> #   start_defense_score <int>, end_offense_score <int>,
#> #   end_defense_score <int>, time_minutes_start <int>, …
…
