…
Other CFBD PBP:
[`cfbd_live_plays()`](https://cfbfastR.sportsdataverse.org/reference/cfbd_live_plays.md),
[`cfbd_pbp_data()`](https://cfbfastR.sportsdataverse.org/reference/cfbd_pbp_data.md),
[`cfbd_play_stats_player()`](https://cfbfastR.sportsdataverse.org/reference/cfbd_play_stats_player.md),
[`cfbd_play_stats_types()`](https://cfbfastR.sportsdataverse.org/reference/cfbd_play_stats_types.md),
[`cfbd_play_types()`](https://cfbfastR.sportsdataverse.org/reference/cfbd_play_types.md)

## Examples

``` r
# \donttest{
  try(cfbd_plays(year = 2021, week = 1))
#> ── Play-by-play data from CollegeFootballData.com ──────────── cfbfastR 2.2.1 ──
#> ℹ Data updated: 2026-01-19 16:22:37 UTC
#> # A tibble: 15,066 × 28
#>     game_id drive_id play_id drive_number play_number offense offense_conference
#>       <int> <chr>    <chr>          <int>       <int> <chr>   <chr>             
#>  1   4.01e8 4012827… 401282…            1           1 Illino… Big Ten           
#>  2   4.01e8 4012827… 401282…            1           7 Nebras… Big Ten           
#>  3   4.01e8 4012827… 401282…            1           6 Nebras… Big Ten           
#>  4   4.01e8 4012827… 401282…            1           5 Nebras… Big Ten           
#>  5   4.01e8 4012827… 401282…            1           4 Nebras… Big Ten           
#>  6   4.01e8 4012827… 401282…            1           3 Nebras… Big Ten           
#>  7   4.01e8 4012827… 401282…            1           2 Nebras… Big Ten           
#>  8   4.01e8 4012827… 401282…            2           5 Illino… Big Ten           
#>  9   4.01e8 4012827… 401282…            2           4 Illino… Big Ten           
#> 10   4.01e8 4012827… 401282…            2           3 Illino… Big Ten           
#> # ℹ 15,056 more rows
#> # ℹ 21 more variables: offense_score <int>, defense <chr>,
#> #   defense_conference <chr>, defense_score <int>, home <chr>, away <chr>,
#> #   period <int>, offense_timeouts <int>, defense_timeouts <int>,
#> #   yardline <int>, yards_to_goal <int>, down <int>, distance <int>,
#> #   yards_gained <int>, scoring <lgl>, play_type <chr>, play_text <chr>,
#> #   ppa <dbl>, wallclock <chr>, clock_minutes <int>, clock_seconds <int>
…
