Get player statistics by game — cfbd_game_player_stats • cfbfastR
…
    Examples

# \donttest{
  try(cfbd_game_player_stats(year = 2020, week = 15, team = "Alabama"))
#> ── Game player stats data from CollegeFootballData.com ─────── cfbfastR 1.9.4 ──
#> ℹ Data updated: 2023-04-04 05:32:32 UTC
#> # A tibble: 48 × 60
#>      game_id team    conference home_away team_points athlete_id athlete_name   
#>        <int> <chr>   <chr>      <chr>           <int>      <int> <chr>          
#>  1 401267164 Alabama SEC        away               52    4241478 DeVonta Smith  
#>  2 401267164 Alabama SEC        away               52    4685723 Roydell Willia…
#>  3 401267164 Alabama SEC        away               52    4567140 DJ Dale        
#>  4 401267164 Alabama SEC        away               52    4567123 Byron Young    
#>  5 401267164 Alabama SEC        away               52    4372025 Jaylen Moody   
#>  6 401267164 Alabama SEC        away               52    4261098 Charlie Scott  
#>  7 401267164 Alabama SEC        away               52    4567104 Will Reichard  
#>  8 401267164 Alabama SEC        away               52    4241474 Brian Robinson…
#>  9 401267164 Alabama SEC        away               52    4692025 Brian Branch   
#> 10 401267164 Alabama SEC        away               52    4430823 Thaiu Jones-Be…
#> # ℹ 38 more rows
#> # ℹ 53 more variables: defensive_td <dbl>, defensive_qb_hur <dbl>,
#> #   defensive_pd <dbl>, defensive_tfl <dbl>, defensive_sacks <dbl>,
#> #   defensive_solo <dbl>, defensive_tot <dbl>, fumbles_rec <dbl>,
#> #   fumbles_lost <dbl>, fumbles_fum <dbl>, punting_long <dbl>,
#> #   punting_in_20 <dbl>, punting_tb <dbl>, punting_avg <dbl>,
#> #   punting_yds <dbl>, punting_no <dbl>, kicking_pts <dbl>, …
…
