…
## Details

CFB Venue Information

     cfbd_venues()

## Examples

``` r
# \donttest{
  try(cfbd_venues())
#> ── Venue data from CollegeFootballData.com ─────────────────── cfbfastR 2.2.1 ──
#> ℹ Data updated: 2026-01-19 16:23:07 UTC
#> # A tibble: 837 × 14
#>    venue_id name    capacity grass dome  city  state zip   country_code timezone
#>       <int> <chr>      <int> <lgl> <lgl> <chr> <chr> <chr> <chr>        <chr>   
#>  1     5938 Al Whi…     4000 NA    FALSE Port… "NM"  88130 US           NA      
#>  2      218 FIU St…    20000 FALSE FALSE Miami "FL"  33199 US           America…
#>  3     4779 Thomas…    15000 TRUE  FALSE Nass… ""    NA    BS           NA      
#>  4    11591 Lokken…       NA NA    FALSE Vall… "ND"  NA    US           NA      
#>  5     5220 Garris…     5000 NA    FALSE Murf… "TN"  NA    US           NA      
#>  6     3884 RAM St…       NA NA    FALSE East… "GA"  NA    US           NA      
#>  7    11589 Hinchl…       NA NA    TRUE  Pate… "NJ"  NA    US           NA      
#>  8     6043 Bethpa…     6000 FALSE FALSE Broo… "NY"  11545 US           America…
#>  9    11539 Charlo…       NA NA    FALSE Jame… "ND"  NA    US           NA      
#> 10    11488 Centre…       NA TRUE  NA    Pawt… "RI"  NA    USA          NA      
#> # ℹ 827 more rows
#> # ℹ 4 more variables: latitude <dbl>, longitude <dbl>, elevation <chr>,
#> #   year_constructed <int>
…
