Get list of NFL draft picks — cfbd_draft_picks • cfbfastR
…
hometown_info_longitude: character.
Hometown longitude of the NFL draftee.

hometown_info_county_fips: character.
Hometown FIPS code of the NFL draftee.

    Examples

# \donttest{
  try(cfbd_draft_picks(year = 2020))
#> ── NFL draft data from CollegeFootballData.com ─────────────── cfbfastR 1.9.5 ──
#> ℹ Data updated: 2025-08-23 21:20:56 UTC
#> # A tibble: 255 × 24
#>    college_athlete_id nfl_athlete_id college_id college_team college_conference
#>                 <int>          <int>      <int> <chr>        <chr>             
#>  1            3915511         104204         99 LSU          SEC               
#>  2            4241986         104097        194 Ohio State   Big Ten           
#>  3            4241984         104096        194 Ohio State   Big Ten           
#>  4            4259566         104112         61 Georgia      SEC               
#>  5            4241479         104093        333 Alabama      SEC               
#>  6            4038941         104099       2483 Oregon       Pac-12            
#>  7            4035495         104098          2 Auburn       SEC               
#>  8            4035462         104106        228 Clemson      ACC               
#>  9            4240596         104104         57 Florida      SEC               
#> 10            4241482         104425        333 Alabama      SEC               
#> # ℹ 245 more rows
#> # ℹ 19 more variables: nfl_team_id <int>, nfl_team <chr>, year <int>,
#> #   overall <int>, round <int>, pick <int>, name <chr>, position <chr>,
#> #   height <int>, weight <int>, pre_draft_ranking <int>,
#> #   pre_draft_position_ranking <int>, pre_draft_grade <int>,
#> #   hometown_info_city <chr>, hometown_info_state <chr>,
#> #   hometown_info_country <chr>, hometown_info_latitude <chr>, …
…
