…
## Examples

``` r
# \donttest{
  try(cfbd_metrics_wp(game_id = 401012356))
#> ── WP data from CollegeFootballData.com ────────────────────── cfbfastR 2.2.0 ──
#> ℹ Data updated: 2026-01-12 06:33:09 UTC
#> # A tibble: 224 × 16
#>    play_id     play_text home_id home  away_id away  spread home_ball home_score
#>    <chr>       <chr>       <int> <chr>   <int> <chr>  <int> <lgl>          <int>
#>  1 4010123561… Joe Burr…     245 Texa…      99 LSU       -3 FALSE              0
#>  2 4010123561… Nick Bro…     245 Texa…      99 LSU       -3 FALSE              0
#>  3 4010123561… Joe Burr…     245 Texa…      99 LSU       -3 FALSE              0
#>  4 4010123561… Zach Von…     245 Texa…      99 LSU       -3 FALSE              0
#>  5 4010123561… Trayveon…     245 Texa…      99 LSU       -3 TRUE               0
#>  6 4010123561… Kellen M…     245 Texa…      99 LSU       -3 TRUE               0
#>  7 4010123561… Kellen M…     245 Texa…      99 LSU       -3 TRUE               0
#>  8 4010123561… Braden M…     245 Texa…      99 LSU       -3 TRUE               0
#>  9 4010123561… Joe Burr…     245 Texa…      99 LSU       -3 FALSE              0
#> 10 4010123561… Nick Bro…     245 Texa…      99 LSU       -3 FALSE              0
#> # ℹ 214 more rows
#> # ℹ 7 more variables: away_score <int>, down <int>, distance <int>,
#> #   home_win_prob <dbl>, away_win_prob <dbl>, play_number <int>,
#> #   yard_line <int>
…
