…
Other CFBD Stats:
[`cfbd_stats_categories()`](https://cfbfastR.sportsdataverse.org/reference/cfbd_stats_categories.md),
[`cfbd_stats_game_advanced()`](https://cfbfastR.sportsdataverse.org/reference/cfbd_stats_game_advanced.md),
[`cfbd_stats_season_advanced()`](https://cfbfastR.sportsdataverse.org/reference/cfbd_stats_season_advanced.md),
[`cfbd_stats_season_team()`](https://cfbfastR.sportsdataverse.org/reference/cfbd_stats_season_team.md)

## Examples

``` r
# \donttest{
   try(cfbd_stats_season_player(year = 2018, conference = "B12", start_week = 1, end_week = 7))
#> ── Advanced player season stats from CollegeFootballData.com ───────────────────
#> ℹ Data updated: 2026-01-12 06:33:54 UTC
#> # A tibble: 544 × 60
#>     year team          conference athlete_id player position passing_completions
#>    <dbl> <chr>         <chr>      <chr>      <chr>  <chr>                  <dbl>
#>  1  2018 Oklahoma      Big 12     3116367    Curti… LB                        NA
#>  2  2018 Oklahoma      Big 12     3116384    Carso… FB                        NA
#>  3  2018 TCU           Big 12     3116420    Grays… QB                         8
#>  4  2018 TCU           Big 12     3116426    Ridwa… S                         NA
#>  5  2018 TCU           Big 12     3116431    Ty Su… LB                        NA
#>  6  2018 TCU           Big 12     3116436    Trey … G                         NA
#>  7  2018 TCU           Big 12     3116449    L.J. … DE                        NA
#>  8  2018 West Virginia Big 12     3116455    Yodny… OL                        NA
#>  9  2018 West Virginia Big 12     3116461    Billy… P                         NA
#> 10  2018 Baylor        Big 12     3116715    Jalan… QB                        26
#> # ℹ 534 more rows
#> # ℹ 53 more variables: passing_att <dbl>, passing_pct <dbl>, passing_yds <dbl>,
#> #   passing_td <dbl>, passing_int <dbl>, passing_ypa <dbl>, rushing_car <dbl>,
#> #   rushing_yds <dbl>, rushing_td <dbl>, rushing_ypc <dbl>, rushing_long <dbl>,
#> #   receiving_rec <dbl>, receiving_yds <dbl>, receiving_td <dbl>,
#> #   receiving_ypr <dbl>, receiving_long <dbl>, fumbles_fum <dbl>,
#> #   fumbles_rec <dbl>, fumbles_lost <dbl>, defensive_solo <dbl>, …
…
