Get team rosters — cfbd_team_roster • cfbfastR
…
home_county_fips: integer.
Hometown FIPS code.

headshot_url: character
Player ESPN headshot url.

    Examples

# \donttest{
cfbd_team_roster(year = 2013, team = "Florida State")
#> ── team roster data from CollegeFootballData.com ───────────── cfbfastR 1.8.1 ──
#> ℹ Data updated: 2022-04-27 01:17:07 UTC
#> # A tibble: 55 × 17
#>    athlete_id first_name last_name team      weight height jersey  year position
#>    <chr>      <chr>      <chr>     <chr>      <int>  <int>  <int> <int> <chr>   
#>  1 480772     Dan        Hicks     Florida …     NA     76      6    NA DE      
#>  2 480781     Jacobbi    McDaniel  Florida …     NA     72     55    NA DT      
#>  3 501075     Chad       Abram     Florida …     NA     72     41    NA FB      
#>  4 501076     Terrence   Brooks    Florida …     NA     71     31    NA DB      
#>  5 501077     Shayne     Broxsie   Florida …     NA     74     42    NA TE      
#>  6 501082     Jarred     Haggins   Florida …     NA     72     12    NA WR      
#>  7 501083     Christian  Jones     Florida …     NA     76      7    NA LB      
#>  8 501084     Lamarcus   Joyner    Florida …     NA     68     20    NA DB      
#>  9 501095     Telvin     Smith     Florida …     NA     75     22    NA LB      
#> 10 501097     Nigel      Terrell   Florida …     NA     74     43    NA LB      
#> # … with 45 more rows, and 8 more variables: home_city <chr>, home_state <chr>,
#> #   home_country <chr>, home_latitude <chr>, home_longitude <chr>,
#> #   home_county_fips <chr>, recruit_ids <list>, headshot_url <chr>
…
