CFBD Coaches Endpoint Overview — cfbd_coaches • cfbfastR
…
sp_offense:character.
Bill Connelly's SP+ offense for team.

sp_defense:character.
Bill Connelly's SP+ defense for team.

    Examples

# \donttest{
  cfbd_coaches(first = "Nick", last = "Saban", team = "alabama")
#> ── Coaches data from CollegeFootballData.com ───────────────── cfbfastR 1.8.1 ──
#> ℹ Data updated: 2022-04-29 23:38:31 UTC
#> # A tibble: 121 × 15
#>    first_name last_name   hire_date school   year games  wins losses  ties
#>    <chr>      <chr>       <chr>     <chr>   <int> <int> <int>  <int> <int>
#>  1 M.         Griffin     NA        Alabama  1900     5     2      3     0
#>  2 G.H.       Harvey      NA        Alabama  1901     5     2      1     2
#>  3 Eli        Abbott      NA        Alabama  1902     8     4      4     0
#>  4 J.O.       Heyworth    NA        Alabama  1902     8     4      4     0
#>  5 W.B.       Blount      NA        Alabama  1903     7     3      4     0
#>  6 W.B.       Blount      NA        Alabama  1904    10     7      3     0
#>  7 Jack       Leavenworth NA        Alabama  1905    10     6      4     0
#>  8 J.W.H.     Pollard     NA        Alabama  1906     6     5      1     0
#>  9 J.W.H.     Pollard     NA        Alabama  1907     8     5      1     2
#> 10 J.W.H.     Pollard     NA        Alabama  1908     8     6      1     1
#> # … with 111 more rows, and 6 more variables: preseason_rank <int>,
#> #   postseason_rank <int>, srs <chr>, sp_overall <chr>, sp_offense <chr>,
#> #   sp_defense <chr>
…
