…
  .

- `game_date_time`: datetime.:

  .

## Examples

``` r
# \donttest{
  try(espn_cfb_scoreboard())
#> ── Live Scoreboard Data from ESPN ──────────────────────────── cfbfastR 2.2.0 ──
#> ℹ Data updated: 2026-01-12 06:34:15 UTC
#> # A tibble: 47 × 59
#>    matchup          matchup_short season type  slug  game_id game_uid game_date 
#>    <chr>            <chr>          <int> <chr> <chr> <chr>   <chr>    <date>    
#>  1 Army Black Knig… ARMY VS NAVY    2025 post… post… 401762… s:20~l:… 2025-12-13
#>  2 Boise State Bro… BOIS VS WASH    2025 post… post… 401778… s:20~l:… 2025-12-13
#>  3 Troy Trojans at… TROY VS JVST    2025 post… post… 401778… s:20~l:… 2025-12-16
#>  4 Old Dominion Mo… ODU VS USF      2025 post… post… 401778… s:20~l:… 2025-12-17
#>  5 Louisiana Ragin… UL VS DEL       2025 post… post… 401778… s:20~l:… 2025-12-17
#>  6 Missouri State … MOST VS ARST    2025 post… post… 401838… s:20~l:… 2025-12-18
#>  7 Alabama Crimson… ALA @ OU        2025 post… post… 401779… s:20~l:… 2025-12-19
#>  8 Kennesaw State … KENN VS WMU     2025 post… post… 401778… s:20~l:… 2025-12-19
#>  9 Memphis Tigers … MEM VS NCSU     2025 post… post… 401778… s:20~l:… 2025-12-19
#> 10 James Madison D… JMU @ ORE       2025 post… post… 401779… s:20~l:… 2025-12-20
#> # ℹ 37 more rows
#> # ℹ 51 more variables: attendance <int>, date_valid <lgl>,
#> #   play_by_play_available <lgl>, home_team_name <chr>, home_team_logo <chr>,
#> #   home_team_abb <chr>, home_team_id <chr>, home_team_location <chr>,
#> #   home_team_full <chr>, home_team_color <chr>, home_score <int>,
#> #   home_win <int>, home_record <chr>, away_team_name <chr>,
#> #   away_team_logo <chr>, away_team_abb <chr>, away_team_id <chr>, …
# }

# \donttest{
  try(espn_cfb_schedule(2021, week = 8))
#> ── Schedule Data from ESPN ─────────────────────────────────── cfbfastR 2.2.0 ──
#> ℹ Data updated: 2026-01-12 06:34:16 UTC
#> # A tibble: 54 × 60
#>    matchup          matchup_short season type  slug  game_id game_uid game_date 
#>    <chr>            <chr>          <int> <chr> <chr> <chr>   <chr>    <date>    
#>  1 Coastal Carolin… CCU @ APP       2021 regu… regu… 401309… s:20~l:… 2021-10-20
#>  2 Tulane Green Wa… TULN @ SMU      2021 regu… regu… 401301… s:20~l:… 2021-10-21
#>  3 Florida Atlanti… FAU @ CLT       2021 regu… regu… 401282… s:20~l:… 2021-10-21
#>  4 Louisiana Ragin… UL @ ARST       2021 regu… regu… 401309… s:20~l:… 2021-10-21
#>  5 San José State … SJSU @ UNLV     2021 regu… regu… 401310… s:20~l:… 2021-10-21
#>  6 Middle Tennesse… MTSU @ CONN     2021 regu… regu… 401282… s:20~l:… 2021-10-22
#>  7 Memphis Tigers … MEM @ UCF       2021 regu… regu… 401301… s:20~l:… 2021-10-22
#>  8 Colorado State … CSU @ USU       2021 regu… regu… 401310… s:20~l:… 2021-10-22
#>  9 Washington Husk… WASH @ ARIZ     2021 regu… regu… 401309… s:20~l:… 2021-10-22
#> 10 Cincinnati Bear… CIN @ NAVY      2021 regu… regu… 401301… s:20~l:… 2021-10-23
#> # ℹ 44 more rows
#> # ℹ 52 more variables: attendance <int>, date_valid <lgl>,
#> #   play_by_play_available <lgl>, home_team_name <chr>, home_team_logo <chr>,
#> #   home_team_abb <chr>, home_team_id <chr>, home_team_location <chr>,
#> #   home_team_full <chr>, home_team_color <chr>, home_score <int>,
#> #   home_win <int>, home_record <chr>, away_team_name <chr>,
#> #   away_team_logo <chr>, away_team_abb <chr>, away_team_id <chr>, …
…
