ESPN Scoreboard — espn_cfb_scoreboard • cfbfastR
…
receiving_leader_team_id: character.
Team ID of game's receiving leader

receiving_leader_pos: character.
Position of game's receiving leader

    Examples

# \donttest{
espn_cfb_scoreboard()
#> ── Live Scoreboard Data from ESPN ──────────────────────────── cfbfastR 1.8.1 ──
#> ℹ Data updated: 2022-04-30 11:13:58 UTC
#> # A tibble: 95 × 33
#>    matchup           matchup_short season type  slug  game_id game_uid game_date
#>    <chr>             <chr>          <int> <chr> <chr> <chr>   <chr>    <chr>    
#>  1 Vanderbilt Commo… VAN @ HAW       2022 regu… regu… 401403… s:20~l:… 2022-08-…
#>  2 UConn Huskies at… CONN @ USU      2022 regu… regu… 401404… s:20~l:… 2022-08-…
#>  3 Wyoming Cowboys … WYO @ ILL       2022 regu… regu… 401405… s:20~l:… 2022-08-…
#>  4 Northwestern Wil… NU @ NEB        2022 regu… regu… 401405… s:20~l:… 2022-08-…
#>  5 Nevada Wolf Pack… NEV @ NMSU      2022 regu… regu… 401409… s:20~l:… 2022-08-…
#>  6 Duquesne Dukes a… DUQ @ FSU       2022 regu… regu… 401411… s:20~l:… 2022-08-…
#>  7 Florida A&M Ratt… FAMU @ UNC      2022 regu… regu… 401411… s:20~l:… 2022-08-…
#>  8 Charlotte 49ers … CLT @ FAU       2022 regu… regu… 401426… s:20~l:… 2022-08-…
#>  9 North Texas Mean… UNT @ UTEP      2022 regu… regu… 401426… s:20~l:… 2022-08-…
#> 10 Austin Peay Gove… APSU @ WKU      2022 regu… regu… 401426… s:20~l:… 2022-08-…
#> # … with 85 more rows, and 25 more variables: attendance <int>,
#> #   home_team_name <chr>, home_team_logo <chr>, home_team_abb <chr>,
#> #   home_team_id <chr>, home_team_location <chr>, home_team_full <chr>,
#> #   home_team_color <chr>, home_score <int>, home_win <int>, home_record <lgl>,
#> #   away_team_name <chr>, away_team_logo <chr>, away_team_abb <chr>,
#> #   away_team_id <chr>, away_team_location <chr>, away_team_full <chr>,
#> #   away_team_color <chr>, away_score <int>, away_win <int>, …
# }

# \donttest{
espn_cfb_schedule(2021, week = 8)
#> ── Schedule Data from ESPN ─────────────────────────────────── cfbfastR 1.8.1 ──
#> ℹ Data updated: 2022-04-30 11:13:59 UTC
#> # A tibble: 54 × 55
#>    matchup           matchup_short season type  slug  game_id game_uid game_date
#>    <chr>             <chr>          <int> <chr> <chr> <chr>   <chr>    <chr>    
#>  1 Coastal Carolina… CCU @ APP       2021 regu… regu… 401309… s:20~l:… 2021-10-…
#>  2 Tulane Green Wav… TULN @ SMU      2021 regu… regu… 401301… s:20~l:… 2021-10-…
#>  3 Florida Atlantic… FAU @ CLT       2021 regu… regu… 401282… s:20~l:… 2021-10-…
#>  4 Louisiana Ragin'… UL @ ARST       2021 regu… regu… 401309… s:20~l:… 2021-10-…
#>  5 San José State S… SJSU @ UNLV     2021 regu… regu… 401310… s:20~l:… 2021-10-…
#>  6 Middle Tennessee… MTSU @ CONN     2021 regu… regu… 401282… s:20~l:… 2021-10-…
#>  7 Memphis Tigers a… MEM @ UCF       2021 regu… regu… 401301… s:20~l:… 2021-10-…
#>  8 Colorado State R… CSU @ USU       2021 regu… regu… 401310… s:20~l:… 2021-10-…
#>  9 Washington Huski… WASH @ ARIZ     2021 regu… regu… 401309… s:20~l:… 2021-10-…
#> 10 Cincinnati Bearc… CIN @ NAVY      2021 regu… regu… 401301… s:20~l:… 2021-10-…
#> # … with 44 more rows, and 47 more variables: attendance <int>,
#> #   home_team_name <chr>, home_team_logo <chr>, home_team_abb <chr>,
#> #   home_team_id <chr>, home_team_location <chr>, home_team_full <chr>,
#> #   home_team_color <chr>, home_score <int>, home_win <int>, home_record <chr>,
#> #   away_team_name <chr>, away_team_logo <chr>, away_team_abb <chr>,
#> #   away_team_id <chr>, away_team_location <chr>, away_team_full <chr>,
#> #   away_team_color <chr>, away_score <int>, away_win <int>, …
…
