…
### **College Football Mapping for Stats Categories**

``` r
cfbd_stats_categories()
```

    ## ── Stat categories for CollegeFootballData.com ─────────────── cfbfastR 2.2.0 ──

    ## ℹ Data updated: 2026-01-12 06:35:33 UTC

    ## # A tibble: 38 × 1
    ##    category          
    ##    <chr>             
    ##  1 completionAttempts
    ##  2 defensiveTDs      
    ##  3 extraPoints       
    ##  4 fieldGoalPct      
    ##  5 fieldGoals        
    ##  6 firstDowns        
    ##  7 fourthDownEff     
    ##  8 fumblesLost       
    ##  9 fumblesRecovered  
    ## 10 interceptions     
    ## # ℹ 28 more rows
